{
    "linus": {
        "name": "Starter",
        "image": "http://static.coldad.com/newsletter/mn-news01.jpg", 
        "description": "Starter is an essentioal template to start your inbound marketing campaigns.",
        "uri": "http://www.coldad.com",
        "endpoint": "http://www.coldad.com"
    }
}